examples/spade.vcd
$date
	Wed Jul  3 11:57:41 2024
$end
$version
	Icarus Verilog
$end
$timescale
	1ps
$end
$scope module proj::pipeline_ready_valid::ready_valid_pipeline $end
$var wire 1 ! \#s1_enable $end
$var wire 1 " \#s2_enable $end
$var wire 1 # \#s3_enable $end
$var wire 1 $ _e_659 $end
$var wire 2 % _e_665 [1:0] $end
$var wire 2 & _e_674 [1:0] $end
$var wire 2 ' _e_683 [1:0] $end
$var wire 2 ( _e_692 [1:0] $end
$var wire 1 ) _e_696 $end
$var wire 1 * _e_980 $end
$var wire 1 + _e_982 $end
$var wire 1 , _e_984 $end
$var wire 1 - _e_987 $end
$var wire 1 . _e_989 $end
$var wire 1 / _e_992 $end
$var wire 1 0 _e_994 $end
$var wire 1 1 _e_998 $end
$var wire 1 2 clk $end
$var wire 1 3 clk_i $end
$var wire 4 4 enables [3:0] $end
$var wire 4 5 enables_i [3:0] $end
$var wire 18 6 output__ [17:0] $end
$var wire 8 7 val [7:0] $end
$var wire 8 8 val_i [7:0] $end
$var wire 2 9 s4 [1:0] $end
$var wire 2 : s3 [1:0] $end
$var wire 2 ; s2 [1:0] $end
$var wire 2 < s1 [1:0] $end
$var wire 2 = s0 [1:0] $end
$var wire 1 > _e_997 $end
$var wire 1 ? _e_996 $end
$var wire 1 @ _e_995 $end
$var wire 1 A _e_993 $end
$var wire 1 B _e_991 $end
$var wire 1 C _e_990 $end
$var wire 1 D _e_988 $end
$var wire 1 E _e_986 $end
$var wire 1 F _e_985 $end
$var wire 1 G _e_983 $end
$var wire 1 H _e_981 $end
$var wire 1 I _e_979 $end
$var wire 8 J _e_978 [7:0] $end
$var wire 8 K _e_977 [7:0] $end
$var wire 8 L _e_976 [7:0] $end
$var wire 8 M _e_975 [7:0] $end
$var wire 1 N _e_726 $end
$var wire 1 O _e_723 $end
$var wire 1 P _e_720 $end
$var wire 1 Q _e_717 $end
$var wire 1 R _e_714 $end
$var wire 1 S _e_711 $end
$var wire 1 T _e_708 $end
$var wire 1 U _e_705 $end
$var wire 1 V _e_702 $end
$var wire 1 W _e_699 $end
$var wire 18 X _e_698 [17:0] $end
$var wire 1 Y _e_680 $end
$var wire 1 Z _e_671 $end
$var wire 1 [ _e_662 $end
$var wire 1 \ \#s4_enable $end
$var reg 1 ] \#s1_valid $end
$var reg 1 ^ \#s2_valid $end
$var reg 1 _ \#s3_valid $end
$var reg 1 ` \#s4_valid $end
$var reg 8 a s1_val [7:0] $end
$var reg 8 b s2_val [7:0] $end
$var reg 8 c s3_val [7:0] $end
$var reg 8 d s4_val [7:0] $end
$upscope $end
$enddefinitions $end
$comment Show the parameter values. $end
$dumpall
$end
#0
$dumpvars
bx d
bx c
bx b
bx a
x`
x_
x^
x]
1\
1[
1Z
1Y
b1xxxx11111xxxxxxxx X
1W
xV
xU
xT
xS
1R
1Q
1P
1O
1N
bz M
bx L
bx K
bx J
1I
0H
1G
xF
0E
1D
xC
0B
1A
x@
0?
1>
b11 =
b1x <
b1x ;
b1x :
b1x 9
bz 8
bz 7
b1xxxx11111xxxxxxxx 6
bz 5
b1111 4
13
12
x1
x0
0/
x.
0-
1,
0+
1*
1)
b11 (
b10 '
b1 &
b0 %
1$
1#
1"
1!
$end
#500
b0 M
b0 7
02
03
#1000
1.
1F
b11xxx11111xxxxxxxx 6
b11xxx11111xxxxxxxx X
1V
b0 L
b11 <
1]
b0 a
12
13
#1500
b1 M
b1 7
02
03
#2000
10
b1 L
b0 K
1C
b111xx11111xxxxxxxx 6
b111xx11111xxxxxxxx X
1U
b1 a
b0 b
b11 ;
1^
12
13
#2500
b10 M
b10 7
02
03
#3000
11
1@
b1111x11111xxxxxxxx 6
b1111x11111xxxxxxxx X
1T
b0 J
b1 K
b10 L
b11 :
1_
b0 c
b1 b
b10 a
12
13
#3500
b11 M
b11 7
02
03
#4000
b11 L
b10 K
b1 J
1S
b11 a
b10 b
b1 c
b111111111100000000 6
b111111111100000000 X
b0 d
b11 9
1`
12
13
#4500
b100 M
b100 7
02
03
#5000
b10 J
b11 K
b100 L
b111111111100000001 6
b111111111100000001 X
b1 d
b10 c
b11 b
b100 a
12
13
#5500
b101 M
b101 7
02
03
#6000
b101 L
b100 K
b11 J
b101 a
b100 b
b11 c
b111111111100000010 6
b111111111100000010 X
b10 d
12
13
#6500
02
03
#7000
b100 J
b101 K
b111111111100000011 6
b111111111100000011 X
b11 d
b100 c
b101 b
12
13
#7500
02
03
#8000
b101 J
b101 c
b111111111100000100 6
b111111111100000100 X
b100 d
12
13
#8500
02
03
#9000
b111111111100000101 6
b111111111100000101 X
b101 d
12
13
