examples/spade.vcd
$date
	Fri Nov  3 20:24:28 2023
$end
$version
	Icarus Verilog
$end
$timescale
	1ps
$end
$scope module proj::pipeline_ready_valid::ready_valid_pipeline $end
$var wire 1 ! \#s1_enable $end
$var wire 1 " \#s2_enable $end
$var wire 1 # \#s3_enable $end
$var wire 1 $ _e_141 $end
$var wire 2 % _e_147 [1:0] $end
$var wire 2 & _e_156 [1:0] $end
$var wire 2 ' _e_165 [1:0] $end
$var wire 2 ( _e_174 [1:0] $end
$var wire 1 ) _e_178 $end
$var wire 1 * _e_268 $end
$var wire 1 + _e_270 $end
$var wire 1 , _e_272 $end
$var wire 1 - _e_275 $end
$var wire 1 . _e_277 $end
$var wire 1 / _e_280 $end
$var wire 1 0 _e_282 $end
$var wire 1 1 _e_286 $end
$var wire 1 2 clk $end
$var wire 1 3 clk_i $end
$var wire 4 4 enables [3:0] $end
$var wire 4 5 enables_i [3:0] $end
$var wire 18 6 output__ [17:0] $end
$var wire 8 7 val [7:0] $end
$var wire 8 8 val_i [7:0] $end
$var wire 2 9 s4 [1:0] $end
$var wire 2 : s3 [1:0] $end
$var wire 2 ; s2 [1:0] $end
$var wire 2 < s1 [1:0] $end
$var wire 2 = s0 [1:0] $end
$var wire 1 > _e_285 $end
$var wire 1 ? _e_284 $end
$var wire 1 @ _e_283 $end
$var wire 1 A _e_281 $end
$var wire 1 B _e_279 $end
$var wire 1 C _e_278 $end
$var wire 1 D _e_276 $end
$var wire 1 E _e_274 $end
$var wire 1 F _e_273 $end
$var wire 1 G _e_271 $end
$var wire 1 H _e_269 $end
$var wire 1 I _e_267 $end
$var wire 8 J _e_266 [7:0] $end
$var wire 8 K _e_265 [7:0] $end
$var wire 8 L _e_264 [7:0] $end
$var wire 8 M _e_263 [7:0] $end
$var wire 1 N _e_208 $end
$var wire 1 O _e_205 $end
$var wire 1 P _e_202 $end
$var wire 1 Q _e_199 $end
$var wire 1 R _e_196 $end
$var wire 1 S _e_193 $end
$var wire 1 T _e_190 $end
$var wire 1 U _e_187 $end
$var wire 1 V _e_184 $end
$var wire 1 W _e_181 $end
$var wire 18 X _e_180 [17:0] $end
$var wire 1 Y _e_162 $end
$var wire 1 Z _e_153 $end
$var wire 1 [ _e_144 $end
$var wire 1 \ \#s4_enable $end
$var reg 1 ] \#s1_valid $end
$var reg 1 ^ \#s2_valid $end
$var reg 1 _ \#s3_valid $end
$var reg 1 ` \#s4_valid $end
$var reg 8 a s1_val [7:0] $end
$var reg 8 b s2_val [7:0] $end
$var reg 8 c s3_val [7:0] $end
$var reg 8 d s4_val [7:0] $end
$upscope $end
$enddefinitions $end
$comment Show the parameter values. $end
$dumpall
$end
#0
$dumpvars
bx d
bx c
bx b
bx a
x`
x_
x^
x]
z\
z[
zZ
zY
b1xxxxxxxz1xxxxxxxx X
1W
xV
xU
xT
xS
xR
xQ
xP
zO
1N
bx M
bx L
bx K
bx J
xI
xH
xG
xF
xE
xD
xC
xB
xA
x@
x?
x>
bx1 =
bx <
bx ;
bzx :
b1x 9
bz 8
bz 7
b1xxxxxxxz1xxxxxxxx 6
bz 5
bz 4
13
12
x1
x0
x/
x.
x-
x,
x+
1*
1)
b11 (
b10 '
b1 &
b0 %
1$
x#
x"
x!
$end
#500
1,
bz M
1I
1R
1Q
1P
1G
0+
b11 =
1!
1D
0-
b1x <
1"
b1xxxx11111xxxxxxxx 6
b1xxxx11111xxxxxxxx X
1O
1A
0/
b1x ;
1#
0H
1[
0E
1Z
0B
1Y
1>
0?
b1x :
1\
b1111 4
02
03
#1000
1.
1F
b11xxx11111xxxxxxxx 6
b11xxx11111xxxxxxxx X
1V
bz L
b11 <
1]
bz a
12
13
#1500
02
03
#2000
10
bz K
1C
b111xx11111xxxxxxxx 6
b111xx11111xxxxxxxx X
1U
bz b
b11 ;
1^
12
13
#2500
02
03
#3000
11
1@
b1111x11111xxxxxxxx 6
b1111x11111xxxxxxxx X
1T
bz J
b11 :
1_
bz c
12
13
#3500
02
03
#4000
1S
b1111111111zzzzzzzz 6
b1111111111zzzzzzzz X
bz d
b11 9
1`
12
13
#4500
02
03
#5000
12
13
#5500
0,
b1111101111zzzzzzzz 6
b1111101111zzzzzzzz X
0R
0G
1+
b1 =
0!
1H
0[
b1110 4
02
03
#6000
0.
0I
0F
b1011101111zzzzzzzz 6
b1011101111zzzzzzzz X
0V
b10 <
0]
12
13
#6500
1,
1I
b1011111111zzzzzzzz 6
b1011111111zzzzzzzz X
1R
1G
0+
b11 =
1!
0H
1[
b1111 4
02
03
#7000
00
1.
0C
0U
1F
b1101111111zzzzzzzz 6
b1101111111zzzzzzzz X
1V
b10 ;
0^
b11 <
1]
12
13
#7500
0R
0.
b1 =
0!
0F
0Q
b1 <
0"
1C
b1101100011zzzzzzzz 6
b1101100011zzzzzzzz X
0P
0A
1/
b0 ;
0#
1B
0Y
b1011 4
02
03
#8000
01
0C
0@
b1100100011zzzzzzzz 6
b1100100011zzzzzzzz X
0T
b10 :
0_
12
13
#8500
1R
1.
b11 =
1!
1F
1Q
b11 <
1"
b1100111111zzzzzzzz 6
b1100111111zzzzzzzz X
1P
1A
0/
b10 ;
1#
0B
1Y
b1111 4
02
03
#9000
10
0S
1C
b1110011111zzzzzzzz 6
b1110011111zzzzzzzz X
1U
b10 9
0`
b11 ;
1^
12
13
#9500
02
03
#10000
11
1@
b1111011111zzzzzzzz 6
b1111011111zzzzzzzz X
1T
b11 :
1_
12
13
